{
  "use_cuda": false,
  "negative_sampling": "bern",
  "negative_sampling_choices": [
    "bern",
    "unif"
  ],
  "highbrow_test_size": 0.3,
  "model_settings": {
    "margin": 0.5,
    "learning_rate": 0.0004,
    "n_epochs": 1000,
    "batch_size": 500,
    "objective_function": "logistic",
    "optimizer": "SGD"
  }
}