roc-auc-global_default,roc-auc-local_default,roc-auc-cluster_default,roc-auc-global_noconst,roc-auc-local_noconst,roc-auc-cluster_noconst,predicate,bb-accuracy-global_default,bb-accuracy-global_noconst,bb-accuracy-local_default,bb-accuracy-local_noconst
0.5592592592592592,0.75,1.0,,,,_instance_hypernym,0.6086956521739131,,0.3840579710144927,
0.5470341219945289,,0.6342053503323526,,,,_derivationally_related_form,0.9651702786377708,,0.0,
